{
  "brokenTestObjects": [
    {
      "approved": false,
      "proposedXPath": "//td",
      "testObjectId": "Object Repository/EcoOrder/Page_Laveuse  chargement par le haut de 44pi - Whirlpool WTW4855HW - 00381383  EconoMax/td_1",
      "brokenXPath": "//table[@id\u003d\u0027quantity_239004\u0027]/tbody/tr/td",
      "pathToScreenshot": "C:/Users/t.agboton/Documents/wcs-regression/Reports/smart_xpath/Object Repository/EcoOrder/Page_Laveuse  chargement par le haut de 44pi - Whirlpool WTW4855HW - 00381383  EconoMax/td_1_position.png"
    }
  ]
}